{
  "members": [
    {
      "id": 1,
      "member_name": "Drake Seville",
      "member_age": 25,
      "member_gender": "Male"
    },
    {
      "id": 2,
      "member_name": "Dasi Farres",
      "member_age": 22,
      "member_gender": "Male"
    },
    {
      "id": 3,
      "member_name": "Elliot Mesnard",
      "member_age": 24,
      "member_gender": "Male"},
    {
      "id": 4,
      "member_name": "Rowland Ayling",
      "member_age": 30,
      "member_gender": "Male"},
    {
      "id": 5,
      "member_name": "Valerye Wyburn",
      "member_age": 26,
      "member_gender": "Female"},
    {
      "id": 6,
      "member_name": "Conchita Cohrs",
      "member_age": 23,
      "member_gender": "Female"},
    {
      "id": 7,
      "member_name": "Klara McGowan",
      "member_age": 30,
      "member_gender": "Female"},
    {
      "id": 8,
      "member_name": "Isidore Paslow",
      "member_age": 19,
      "member_gender": "Female"},
    {
      "id": 9,
      "member_name": "Tricia Leverette",
      "member_age": 26,
      "member_gender": "Female"},
    {
      "id": 10,
      "member_name": "Calvin Konrad",
      "member_age": 29,
      "member_gender": "Male"}
  ]
}